{
  "type": "service_account",
  "project_id": "whoareyou-c7641",
  "private_key_id": "40e3c1b329b2e3035f4e4dc5baac0a176b5ce169",
  "private_key": "-----BEGIN PRIVATE KEY-----\nMIIEuwIBADANBgkqhkiG9w0BAQEFAASCBKUwggShAgEAAoIBAQDRDtjYudhOT5gd\nPRLAybqVKVpBhAStfmGe75q/gRVzHmn3xK/usPqmD+zSG47GmtG5F5s9c6B87Tqn\n8p7q1FeVMiLxlKxSwoOGb9U9RJoRsLSXqApPu4dtcObXEGbcOcTM4JaWPc72+nN+\nbkoGYS22Cv49zHUAFq6zIND13Zpt9YbM4oYNCPGdCB/dbEAeEkriFAgi3tTI+QdR\nfrjWrDdcuEjhKkulhweZcld1CnfdC2t7Y4kc+NyRCQEML2kjHD5XMQ5lnZ/XxpOq\nlTe4iTHJGwPJ8YpuPXWjh343sh9xU3+XmhXnRIM3bxKSOdJNhyTNBlo6mgsY3vpn\n7sPdSlPzAgMBAAECgf9LnnmeUZrsUkSATv15i36LqQMv4sQ0yhu4yCXLH3+ivfcw\nQcHH+297bq2hUlaF5q2PRfquDItnCzUsV5ZXWt3s5mjwkwnCGQBHBvmBYxvxSizV\ne1lysPwYZvF/P9X1BiOP+BNNEdsxev/lVTKktbU5iloGAIhRsxXkgi159OG0Fw3P\nt5OqTi1QFbSV47Z8JfUOazRTyTcaojtIyBIki9TTIi4TCEQBwuT6jPeiIHoKFPVx\n8YlE9rAsLBi7/KN81tZkxOsh+KtNGnqSi6OR90ctOSkSkaCTAcdZ/sb63rjv7uQX\nCAZ5q4dhozRssYJIstl8YKiU4sOGce4aL5cziKkCgYEA712u6txSyVxp8WmdzVBN\nvO8di6dd30N6dWbqeXvWRD7C/JrVjIrjik5rkNZCe73yAEH9Ue5+/rrZwMNdK+D5\nTDmJ0lIxhgGcK6r5gM94RwZfzg8HUIalwCd61A8dP1/xjzsyGRnTKcJjT44q0Jxk\n3l8OY4aQ1CxR8ZvNJu1aAAcCgYEA35X8WOOhB5R9gk0dy+TSQr1ldFZ8JEU4hxWr\nmAfZ5ETCaqnSbJx/0pugormdGy2W75KwW6NrDh3lhag+r4GBs4uqPgF7Bkix7QqZ\neKoFLCnYsDZpHvgV51ya9foBhEOLVF/wPTLqbThRd6XKoP6FbkhLm5XHkZJmuvtc\nhKTzebUCgYEA4f+M6DiPfYjgikuS70fTrgAB4FpsWiEG3RQHbB4NJrAvP3sdBy4X\nOf1iuARkDxs/AxlLCPFqPC3E7KhILuah2mM1CjwKgCDDB8PNAN5iDIUrLY2o9VG7\n61obMV732V9H3lkgquxkIDhltbZgHEidQAt1tWhXE8yorbrRjuBoqj8CgYAhABk7\n4XUeEkuoFMvGEWL7WMsFrdIq5FCgl5E5IkeFyqRLa/9T6pFvO2stOWo33bW+bI89\nJ1Sgw8bhwGBoNRw4rO+WsU9AMTCZxQu75JRY3WBPOeiwGnvZJzD0B097/yAsdvCV\nh9NUBZD4sO7EbmyxR1hpgWTwVoR1Kq6QIWySVQKBgAzapdDt2n6vNbDeI7fsWkwD\nA7w/y+psUFSOZVEe68OKW51x5agfRCawc/c3/N5FFZouxHQESxjL98xfmcvWpZPS\nmnQqRlR93l8O4/KZkFG0ATzowtQ3kNwokPOkUA93cU2TX1BACzV7Arrxajl9E7VZ\nsCROVQbxmBUNiJZZX+9A\n-----END PRIVATE KEY-----\n",
  "client_email": "firebase-adminsdk-0o9vv@whoareyou-c7641.iam.gserviceaccount.com",
  "client_id": "102400331432670695067",
  "auth_uri": "https://accounts.google.com/o/oauth2/auth",
  "token_uri": "https://oauth2.googleapis.com/token",
  "auth_provider_x509_cert_url": "https://www.googleapis.com/oauth2/v1/certs",
  "client_x509_cert_url": "https://www.googleapis.com/robot/v1/metadata/x509/firebase-adminsdk-0o9vv%40whoareyou-c7641.iam.gserviceaccount.com"
}
